rom_test/simulation/qsim/rom_test.msim.vcd
$comment
	File created using the following command:
		vcd file rom_test.msim.vcd -direction
$end
$date
	Wed May 18 08:48:24 2022
$end
$version
	ModelSim Version 10.1d
$end
$timescale
	1ps
$end
$scope module rom_test_vlg_vec_tst $end
$var reg 8 ! address [7:0] $end
$var reg 1 " clock $end
$var wire 1 # hex0 [0] $end
$var wire 1 $ hex0 [1] $end
$var wire 1 % hex0 [2] $end
$var wire 1 & hex0 [3] $end
$var wire 1 ' hex0 [4] $end
$var wire 1 ( hex0 [5] $end
$var wire 1 ) hex0 [6] $end
$var wire 1 * hex1 [0] $end
$var wire 1 + hex1 [1] $end
$var wire 1 , hex1 [2] $end
$var wire 1 - hex1 [3] $end
$var wire 1 . hex1 [4] $end
$var wire 1 / hex1 [5] $end
$var wire 1 0 hex1 [6] $end
$var wire 1 1 sampler $end
$scope module i1 $end
$var wire 1 2 gnd $end
$var wire 1 3 vcc $end
$var wire 1 4 unknown $end
$var tri1 1 5 devclrn $end
$var tri1 1 6 devpor $end
$var tri1 1 7 devoe $end
$var wire 1 8 hex0[6]~output_o $end
$var wire 1 9 hex0[5]~output_o $end
$var wire 1 : hex0[4]~output_o $end
$var wire 1 ; hex0[3]~output_o $end
$var wire 1 < hex0[2]~output_o $end
$var wire 1 = hex0[1]~output_o $end
$var wire 1 > hex0[0]~output_o $end
$var wire 1 ? hex1[6]~output_o $end
$var wire 1 @ hex1[5]~output_o $end
$var wire 1 A hex1[4]~output_o $end
$var wire 1 B hex1[3]~output_o $end
$var wire 1 C hex1[2]~output_o $end
$var wire 1 D hex1[1]~output_o $end
$var wire 1 E hex1[0]~output_o $end
$var wire 1 F clock~input_o $end
$var wire 1 G clock~inputclkctrl_outclk $end
$var wire 1 H address[7]~input_o $end
$var wire 1 I address[0]~input_o $end
$var wire 1 J address[1]~input_o $end
$var wire 1 K address[2]~input_o $end
$var wire 1 L address[3]~input_o $end
$var wire 1 M address[4]~input_o $end
$var wire 1 N address[5]~input_o $end
$var wire 1 O address[6]~input_o $end
$var wire 1 P rom|Mux7_rtl_0|auto_generated|ram_block1a2 $end
$var wire 1 Q rom|Mux7_rtl_0|auto_generated|ram_block1a3 $end
$var wire 1 R rom|Mux7_rtl_0|auto_generated|ram_block1a1 $end
$var wire 1 S rom|Mux7_rtl_0|auto_generated|ram_block1a0~portadataout $end
$var wire 1 T S0|Mux6~0_combout $end
$var wire 1 U S0|Mux5~0_combout $end
$var wire 1 V S0|Mux4~0_combout $end
$var wire 1 W S0|Mux3~0_combout $end
$var wire 1 X S0|Mux2~0_combout $end
$var wire 1 Y S0|Mux1~0_combout $end
$var wire 1 Z S0|Mux0~0_combout $end
$var wire 1 [ rom|Mux7_rtl_0|auto_generated|ram_block1a7 $end
$var wire 1 \ rom|Mux7_rtl_0|auto_generated|ram_block1a5 $end
$var wire 1 ] rom|Mux7_rtl_0|auto_generated|ram_block1a4 $end
$var wire 1 ^ rom|Mux7_rtl_0|auto_generated|ram_block1a6 $end
$var wire 1 _ S1|Mux6~0_combout $end
$var wire 1 ` S1|Mux5~0_combout $end
$var wire 1 a S1|Mux4~0_combout $end
$var wire 1 b S1|Mux3~0_combout $end
$var wire 1 c S1|Mux2~0_combout $end
$var wire 1 d S1|Mux1~0_combout $end
$var wire 1 e S1|Mux0~0_combout $end
$var wire 1 f rom|Mux7_rtl_0|auto_generated|ram_block1a0_PORTADATAOUT_bus [17] $end
$var wire 1 g rom|Mux7_rtl_0|auto_generated|ram_block1a0_PORTADATAOUT_bus [16] $end
$var wire 1 h rom|Mux7_rtl_0|auto_generated|ram_block1a0_PORTADATAOUT_bus [15] $end
$var wire 1 i rom|Mux7_rtl_0|auto_generated|ram_block1a0_PORTADATAOUT_bus [14] $end
$var wire 1 j rom|Mux7_rtl_0|auto_generated|ram_block1a0_PORTADATAOUT_bus [13] $end
$var wire 1 k rom|Mux7_rtl_0|auto_generated|ram_block1a0_PORTADATAOUT_bus [12] $end
$var wire 1 l rom|Mux7_rtl_0|auto_generated|ram_block1a0_PORTADATAOUT_bus [11] $end
$var wire 1 m rom|Mux7_rtl_0|auto_generated|ram_block1a0_PORTADATAOUT_bus [10] $end
$var wire 1 n rom|Mux7_rtl_0|auto_generated|ram_block1a0_PORTADATAOUT_bus [9] $end
$var wire 1 o rom|Mux7_rtl_0|auto_generated|ram_block1a0_PORTADATAOUT_bus [8] $end
$var wire 1 p rom|Mux7_rtl_0|auto_generated|ram_block1a0_PORTADATAOUT_bus [7] $end
$var wire 1 q rom|Mux7_rtl_0|auto_generated|ram_block1a0_PORTADATAOUT_bus [6] $end
$var wire 1 r rom|Mux7_rtl_0|auto_generated|ram_block1a0_PORTADATAOUT_bus [5] $end
$var wire 1 s rom|Mux7_rtl_0|auto_generated|ram_block1a0_PORTADATAOUT_bus [4] $end
$var wire 1 t rom|Mux7_rtl_0|auto_generated|ram_block1a0_PORTADATAOUT_bus [3] $end
$var wire 1 u rom|Mux7_rtl_0|auto_generated|ram_block1a0_PORTADATAOUT_bus [2] $end
$var wire 1 v rom|Mux7_rtl_0|auto_generated|ram_block1a0_PORTADATAOUT_bus [1] $end
$var wire 1 w rom|Mux7_rtl_0|auto_generated|ram_block1a0_PORTADATAOUT_bus [0] $end
$upscope $end
$upscope $end
$enddefinitions $end
#0
$dumpvars
b11 !
0"
1)
1(
1'
1&
1%
1$
0#
10
1/
1.
1-
1,
1+
0*
x1
02
13
x4
15
16
17
18
19
1:
1;
1<
1=
0>
1?
1@
1A
1B
1C
1D
0E
0F
0G
0H
1I
1J
0K
0L
0M
0N
0O
0P
0Q
0R
0S
0T
0U
0V
0W
0X
0Y
0Z
0[
0\
0]
0^
0_
0`
0a
0b
0c
0d
0e
0w
0v
0u
0t
0s
0r
0q
0p
0o
0n
0m
0l
0k
0j
0i
0h
0g
0f
$end
#15000
1"
1F
1G
01
#15001
1s
1r
1q
1p
1]
1\
1^
1[
1b
1a
1`
1e
0B
0A
0@
1E
0-
0.
0/
1*
#30000
0"
0F
0G
11
#45000
1"
1F
1G
01
#60000
0"
0F
0G
11
#75000
1"
1F
1G
01
#90000
0"
0F
0G
11
#105000
1"
1F
1G
01
#120000
0"
0F
0G
11
#135000
1"
1F
1G
01
#150000
0"
0F
0G
11
#165000
1"
1F
1G
01
#180000
0"
0F
0G
11
#195000
1"
1F
1G
01
#210000
0"
0F
0G
11
#225000
1"
1F
1G
01
#240000
0"
0F
0G
11
#255000
1"
1F
1G
01
#270000
0"
0F
0G
11
#285000
1"
1F
1G
01
#300000
0"
0F
0G
11
#315000
1"
1F
1G
01
#330000
0"
0F
0G
11
#345000
1"
1F
1G
01
#360000
0"
0F
0G
11
#375000
1"
1F
1G
01
#390000
0"
0F
0G
11
#405000
1"
1F
1G
01
#420000
0"
0F
0G
11
#435000
1"
1F
1G
01
#450000
0"
0F
0G
11
#465000
1"
1F
1G
01
#480000
0"
0F
0G
11
#495000
1"
1F
1G
01
#510000
0"
0F
0G
11
#525000
1"
1F
1G
01
#540000
0"
0F
0G
11
#555000
1"
1F
1G
01
#570000
0"
0F
0G
11
#585000
1"
1F
1G
01
#600000
0"
0F
0G
11
#615000
1"
1F
1G
01
#630000
0"
0F
0G
11
#645000
1"
1F
1G
01
#660000
0"
0F
0G
11
#675000
1"
1F
1G
01
#690000
0"
0F
0G
11
#705000
1"
1F
1G
01
#720000
0"
0F
0G
11
#735000
1"
1F
1G
01
#750000
0"
0F
0G
11
#765000
1"
1F
1G
01
#780000
0"
0F
0G
11
#795000
1"
1F
1G
01
#810000
0"
0F
0G
11
#825000
1"
1F
1G
01
#840000
0"
0F
0G
11
#855000
1"
1F
1G
01
#870000
0"
0F
0G
11
#885000
1"
1F
1G
01
#900000
0"
0F
0G
11
#915000
1"
1F
1G
01
#930000
0"
0F
0G
11
#945000
1"
1F
1G
01
#960000
0"
0F
0G
11
#975000
1"
1F
1G
01
#990000
0"
0F
0G
11
